…
# Another way of finding resources is via the Discover API.
# This is equivalent to accessing the "Discover" page directly
# on the HydroShare website. It returns the first 40 results.

hs_discover()

#> # A tibble: 40 x 6
#>    title          link          author       abstract          short_id   metadata
#>    <chr>          <chr>         <chr>        <chr>             <chr>      <list>  
#>  1 SUMMA Simulat… https://hydr… Choi, Young… "These are examp… 03dc01d36… <tibble…
#>  2 SUMMA Simulat… https://hydr… Choi, Young… "These are examp… ac54c8046… <tibble…
#>  3 NLDAS Forcing… https://hydr… Choi, Young… "This resource w… a28685d2d… <tibble…
#>  4 SHAW model in… https://hydr… Marshall, A… "This dataset su… 5a355d673… <tibble…
#>  5 Application o… https://hydr… Pedrazas, M… "Fluvio-deltaic … cf3c26339… <tibble…
#>  6 ModelMyWaters… https://hydr… Ensign, Sco… "A watershed mul… a10bfc16d… <tibble…
#>  7 Wasatch Envir… https://hydr… University … "This dataset co… 5057577e8… <tibble…
#>  8 Wasatch Envir… https://hydr… University … "This dataset co… 252980b3b… <tibble…
#>  9 Wasatch Envir… https://hydr… University … "This dataset co… 6445418c7… <tibble…
#> 10 Wasatch Envir… https://hydr… University … "This dataset co… 74dc57ed7… <tibble…
#> # … with 30 more rows

# You can also call hs_resource() with no parameters to do basic pagination searches.
# This is usually preferred over hs_discover().
hs_resource()

#> $.next
#> [1] "https://www.hydroshare.org/hsapi/resource/search?page=2"
#> 
#> $.prev
#> [1] NA
#> 
#> $results
#> # A tibble: 100 x 10
#>    id     title  author  abstract  contributor subject  availability content_type 
#>    <chr>  <chr>  <chr>   <chr>     <chr>       <chr>    <chr>        <chr>        
#>  1 73aae… 00_Ze… Arscot… "Stroud … ""          mmw, mo… public       Geographic F…
#>  2 73ad4… 00_Ze… Gisond… "Second … ""          osi, mo… public       Geographic F…
#>  3 ea93a… 00_Ze… Gisond… "Part of… ""          osi, mo… public       Geographic F…
#>  4 a2a5c… 01_Pe… Gish, … "Aggrega… ""          cbf, mm… public       Geographic F…
#>  5 5002f… 01_Ze… Gisond… "Part of… ""          osi, mo… public       Geographic F…
#>  6 1048d… 02_Ma… Gish, … "Aggrega… ""          cbf, mm… public       Geographic F…
#>  7 b4b3c… 02_Ze… Gisond… "Second … ""          osi, mo… public       Geographic F…
#>  8 fb70e… 02_Ze… Gisond… "Part of… ""          osi, mo… public       Geographic F…
#>  9 74704… 03_Cl… Gish, … "Aggrega… ""          cbf, mm… public       Geographic F…
#> 10 737cf… 03_Mo… Gisond… "Second … ""          osi, mo… public       Geographic F…
#> # … with 90 more rows, and 2 more variables: metadata <list>, geodata <list>
…
