A HydroShare API client for R • HSClientR
…
# Another way of finding resources is via the Discover API.
# This is equivalent to accessing the "Discover" page directly
# on the HydroShare website. It returns the first 40 results.

hs_discover()

#> # A tibble: 40 x 6
#>    title          link          author       abstract          short_id   metadata
#>    <chr>          <chr>         <chr>        <chr>             <chr>      <list>  
#>  1 SUMMA Simulat… https://hydr… Choi, Young… "These are examp… 03dc01d36… <tibble…
#>  2 SUMMA Simulat… https://hydr… Choi, Young… "These are examp… ac54c8046… <tibble…
#>  3 NLDAS Forcing… https://hydr… Choi, Young… "This resource w… a28685d2d… <tibble…
#>  4 SHAW model in… https://hydr… Marshall, A… "This dataset su… 5a355d673… <tibble…
#>  5 Application o… https://hydr… Pedrazas, M… "Fluvio-deltaic … cf3c26339… <tibble…
#>  6 ModelMyWaters… https://hydr… Ensign, Sco… "A watershed mul… a10bfc16d… <tibble…
#>  7 Wasatch Envir… https://hydr… University … "This dataset co… 5057577e8… <tibble…
#>  8 Wasatch Envir… https://hydr… University … "This dataset co… 252980b3b… <tibble…
#>  9 Wasatch Envir… https://hydr… University … "This dataset co… 6445418c7… <tibble…
#> 10 Wasatch Envir… https://hydr… University … "This dataset co… 74dc57ed7… <tibble…
#> # … with 30 more rows
…
